<?xml version="1.0" encoding="UTF-8" standalone="no"?>
<!-- Created with Inkscape (http://www.inkscape.org/) -->

<svg
   xmlns:dc="http://purl.org/dc/elements/1.1/"
   xmlns:cc="http://creativecommons.org/ns#"
   xmlns:rdf="http://www.w3.org/1999/02/22-rdf-syntax-ns#"
   xmlns:svg="http://www.w3.org/2000/svg"
   xmlns="http://www.w3.org/2000/svg"
   xmlns:xlink="http://www.w3.org/1999/xlink"
   xmlns:sodipodi="http://sodipodi.sourceforge.net/DTD/sodipodi-0.dtd"
   xmlns:inkscape="http://www.inkscape.org/namespaces/inkscape"
   width="129.02536mm"
   height="129.02536mm"
   viewBox="0 0 129.02536 129.02536"
   version="1.1"
   id="svg8"
   sodipodi:docname="width.svg"
   inkscape:version="0.92.1 r15371"
   inkscape:export-filename="/home/s/Desktop/Repositories/bow-simulator-develop/resources/icons/model-tree/width.png"
   inkscape:export-xdpi="9.4493055"
   inkscape:export-ydpi="9.4493055">
  <defs
     id="defs2">
    <linearGradient
       inkscape:collect="always"
       id="linearGradient4488">
      <stop
         style="stop-color:#5599ff;stop-opacity:1"
         offset="0"
         id="stop4484" />
      <stop
         style="stop-color:#0060f0;stop-opacity:1"
         offset="1"
         id="stop4486" />
    </linearGradient>
    <linearGradient
       inkscape:collect="always"
       xlink:href="#linearGradient4488"
       id="linearGradient4490"
       x1="49.00499"
       y1="-30.049171"
       x2="178.03035"
       y2="-30.049171"
       gradientUnits="userSpaceOnUse"
       gradientTransform="translate(0,-29.633346)" />
  </defs>
  <sodipodi:namedview
     id="base"
     pagecolor="#ffffff"
     bordercolor="#666666"
     borderopacity="1.0"
     inkscape:pageopacity="0.0"
     inkscape:pageshadow="2"
     inkscape:zoom="1.3035139"
     inkscape:cx="-2.7914309"
     inkscape:cy="252.6679"
     inkscape:document-units="mm"
     inkscape:current-layer="layer1"
     showgrid="true"
     fit-margin-top="0"
     fit-margin-left="0"
     fit-margin-right="0"
     fit-margin-bottom="0"
     inkscape:window-width="1920"
     inkscape:window-height="997"
     inkscape:window-x="0"
     inkscape:window-y="0"
     inkscape:window-maximized="1">
    <inkscape:grid
       type="xygrid"
       id="grid840"
       originx="-12.557969"
       originy="-125.70255" />
  </sodipodi:namedview>
  <metadata
     id="metadata5">
    <rdf:RDF>
      <cc:Work
         rdf:about="">
        <dc:format>image/svg+xml</dc:format>
        <dc:type
           rdf:resource="http://purl.org/dc/dcmitype/StillImage" />
        <dc:title />
      </cc:Work>
    </rdf:RDF>
  </metadata>
  <g
     inkscape:label="Layer 1"
     inkscape:groupmode="layer"
     id="layer1"
     transform="translate(-49.00499,124.70417)">
    <path
       style="fill:url(#linearGradient4490);fill-opacity:1;stroke:#000000;stroke-width:8;stroke-linecap:butt;stroke-linejoin:miter;stroke-miterlimit:4;stroke-dasharray:none;stroke-opacity:1"
       d="M 49.676187,-29.255433 174.03035,-50.422106 V -68.942939 L 49.676187,-90.109606"
       id="path918"
       inkscape:connector-curvature="0"
       sodipodi:nodetypes="cccc" />
  </g>
</svg>
